  

  #  The source code inscountmem.cpp is in:    

        /pin-3.0-76991-gcc-linux/source/tools/ManualExamples$

     so we have to build it:

        pin-3.0-76991-gcc-linux/source/tools/ManualExamples$ make obj-intel64/inscountmem0.so TARGET=intel64

     so we will have the file inscountmem0.so in:

       /pin-3.0-76991-gcc-linux/source/tools/ManualExamples/obj-intel64$


     the resul will be inside: 

            /cpu2006/benchspec/CPU2006/Program.perlbench/run/run_base_ref_gcc43-64bit.000
     and use:

               cat inscountmem.out


 



